{
    "$schema": "https://raw.githubusercontent.com/microsoft/vcpkg/master/scripts/vcpkg.schema.json",
    "name": "articuno",
    "version-string": "0.0.1",
    "description": "Advanced C++20 serialization library supporting mapping to arbitrary schemas, polymorphism, and much more.",
    "homepage": "https://www.gitlab.com/colorglass/articuno",
    "license": "Apache-2.0",
    "dependencies": [
        "gluino",
        "parallel-hashmap"
    ],
    "features": {
        "icywind-archive": {
            "description": "Support for the Articuno's proprietary binary format, IcyWind.",
            "dependencies": [
                {
                    "name": "articuno",
                    "default-features": false,
                    "features": [
                        "jsoncons-archive"
                    ]
                }
            ]
        },
        "jsoncons-archive": {
            "description": "Support for JSON, BSON, MsgPack, CBOR, and UBJSON archives via jsoncons.",
            "dependencies": [
                "jsoncons"
            ]
        },
        "pugixml-archive": {
            "description": "Support for XML archives via PugiXML.",
            "dependencies": [
                "pugixml"
            ]
        },
        "rapidyaml-archive": {
            "description": "Support for YAML archives via RapidYAML.",
            "dependencies": [
                "ryml"
            ]
        },
        "toml11-archive": {
            "description": "Support for TOML and INI archives via TOML11.",
            "dependencies": [
                "toml11"
            ]
        },
        "tests": {
            "description": "Build and run unit tests.",
            "dependencies": [
                {
                    "name": "articuno",
                    "features": [
                        "icywind-archive",
                        "jsoncons-archive",
                        "rapidyaml-archive",
                        "toml11-archive",
                        "pugixml-archive"
                    ]
                },
                "boost-optional",
                "boost-smart-ptr",
                "boost-variant",
                "boost-variant2",
                "gtest",
                "libcuckoo",
                "qt5-base",
                {
                    "name": "qtbase",
                    "default-features": false,
                    "features": [
                        "doubleconversion",
                        "pcre2"
                    ]
                },
                "robin-hood-hashing",
                "robin-map",
                "sparsepp",
                "tbb",
                "tsl-hopscotch-map",
                "tsl-ordered-map",
                "tsl-sparse-map"
            ]
        }
    },
    "default-features": [
        "icywind-archive",
        "jsoncons-archive",
        "rapidyaml-archive",
        "toml11-archive",
        "pugixml-archive",
        "tests"
    ]
}
